ID|FECHA|HORA|EMPRESA|DIRECCION|TRABAJO_REALIZAR|NUMERO_CONTRACTO|JEFE_CUADRILLA|PROCESO|CELULAR|TIPO_VEHICULO|PLACA_VEHICULO|PLACA_GRUA|PLACA_CANASTA|PLACA_MOTO|ZONA_EEC|OBS_GENERAL
50678|08/05/2015|08:58:03|5600000320|CLL18 2 ESYE -09|INSPECCION|5600000320|JAIME VASQUEZ|NA|3183660137|CAMIONETA|NDU 057|NA|NA|NA||SE VERIFICA DOCUMENTACION EN REGLA Y PREOPERACIONAL --- ID EN FENIX: 50678
50679|08/05/2015|09:30:32|5600000320|PARAMI 20|NA|5600000320|JHON BARREIRO|NA|3102057309|MOTO|NA|NA|NA|RWC 31C||SE VERIFICA DOCUMENRACION EN REGLA --- ID EN FENIX: 50679
50680|08/05/2015|09:33:53|5600000320|PZACA PARAMO|NA|5600000320|DANIEL CASTRO|NA|3173719612|MOTO|NA|NA|NA|RWX 56C||SE BERIFICA DOCUMENTACION REGLA --- ID EN FENIX: 50680
50681|08/05/2015|09:36:05|5600000320|NA|NA|5600000320|JOSE MARROQUIN|NA|3173636140|MOTO|NA|NA|NA|RWW 35C||SE VERIFICA DOCUMENTACION EN REGLA --- ID EN FENIX: 50681
50682|08/05/2015|12:14:28|5600000320|PARAMO SECTOR LOS TANQUESITOS|NA|5600000320|JHON ACOSTA|NA|3172708212|MOTO|NA|NA|NA|VUL 80C||SE VERIFICA DOCUMENTACION EN REGLA Y ESTADO DE EPPS --- ID EN FENIX: 50682
50683|08/05/2015|13:00:25|5600000320|PARAMO TANQUCITOS|FACTURACION|5600000320|JOSE JAVIER CLAVIJO|NA|3173714888|MOTO|NA|NA|NA|VUL 98C||SE VERIFICA DOCUMENTACION EN REGLA Y  EPPS EN BUEN ESTADO --- ID EN FENIX: 50683
50684|08/05/2015|13:56:16|5600000320|PARAMO SECTOR LOS TANQUESITOS|FACTURACION|5600000320|JEISSON ARIAS|NA|3173636117|MOTO|NA|NA|NA|VUL  78C||SE VERIFICA DOCUMENTOS EN REGLA Y ELEMENTOS DE PROTECCION --- ID EN FENIX: 50684
50685|08/05/2015|14:01:03|5600000320|PARAMO SECTOR LIS TANQUESITOS|NA|5600000320|NELSON ROJAS|NA|3173714919|MOTO|NA|NA|NA|VUL 69C||SE VERIFICA DOCUMENTACION EN REGLA Y EPPS --- ID EN FENIX: 50685
50686|08/05/2015|14:05:02|5600000320|PARAMO SECTOR LOS TANQUESITOS|NA|5600000320|GILBERTO GALIANO|NA|3173636023|MOTO|NA|NA|NA|VUG70C||SE VERIFICA DOCUMENTACION EN REGLA Y EPPS --- ID EN FENIX: 50686
