ID|CONTENIDO|SECUENCIA|TIPO|F2
56802|NA|0|1|1
56802|NA|0|2|2
56802|NA|0|3|3
56802|NA|0|4|4
56802|NA|0|5|5
56802|NA|0|6|6
56802|NA|0|7|7
56802|NA|0|8|8
56802|NA|0|9|9
56802|NA|0|10|10
56802|NA|0|11|11
56802|NA|0|12|12
56802|NA|0|13|13
56802|NA|0|14|14
56802|NA|0|15|15
56802|NA|0|A-12|16
56802|NA|0|A-13|17
56802|NA|0|A-14|18
56802|NA|0|A-15|19
56805|NA|0|1|1
56805|NA|0|2|2
56805|NA|0|3|3
56805|NA|0|4|4
56805|NA|0|5|5
56805|NA|0|6|6
56805|NA|0|7|7
56805|NA|0|8|8
56805|NA|0|9|9
56805|NA|0|10|10
56805|NA|0|11|11
56805|NA|0|12|12
56805|NA|0|13|13
56805|NA|0|14|14
56805|NA|0|15|15
56805|NA|0|A-12|16
56805|NA|0|A-13|17
56805|NA|0|A-14|18
56805|NA|0|A-15|19
56819|NA|0|1|1
56819|NA|0|2|2
56819|NA|0|3|3
56819|NA|0|4|4
56819|NA|0|5|5
56819|NA|0|6|6
56819|NA|0|7|7
56819|NA|0|8|8
56819|NA|0|9|9
56819|NA|0|10|10
56819|NA|0|11|11
56819|NA|0|12|12
56819|NA|0|13|13
56819|NA|0|14|14
56819|NA|0|15|15
56819|NA|0|A-12|16
56819|NA|0|A-13|17
56819|NA|0|A-14|18
56819|NA|0|A-15|19
56845|NA|0|1|1
56845|NA|0|2|2
56845|NA|0|3|3
56845|NA|0|4|4
56845|NA|0|5|5
56845|NA|0|6|6
56845|NA|0|7|7
56845|NA|0|8|8
56845|NA|0|9|9
56845|NA|0|10|10
56845|NA|0|11|11
56845|NA|0|12|12
56845|NA|0|13|13
56845|NA|0|14|14
56845|NA|0|15|15
56845|NA|0|A-12|16
56845|NA|0|A-13|17
56845|NA|0|A-14|18
56845|NA|0|A-15|19
56874|NA|0|1|1
56874|NA|0|2|2
56874|NA|0|3|3
56874|NA|0|4|4
56874|NA|0|5|5
56874|NA|0|6|6
56874|NA|0|7|7
56874|NA|0|8|8
56874|NA|0|9|9
56874|NA|0|10|10
56874|NA|0|11|11
56874|NA|0|12|12
56874|NA|0|13|13
56874|NA|0|14|14
56874|NA|0|15|15
56874|NA|0|A-12|16
56874|NA|0|A-13|17
56874|NA|0|A-14|18
56874|NA|0|A-15|19
56875|NA|0|1|1
56875|NA|0|2|2
56875|NA|0|3|3
56875|NA|0|4|4
56875|NA|0|5|5
56875|NA|0|6|6
56875|NA|0|7|7
56875|NA|0|8|8
56875|NA|0|9|9
56875|NA|0|10|10
56875|NA|0|11|11
56875|NA|0|12|12
56875|NA|0|13|13
56875|NA|0|14|14
56875|NA|0|15|15
56875|NA|0|A-12|16
56875|NA|0|A-13|17
56875|NA|0|A-14|18
56875|NA|0|A-15|19
56877|NA|0|1|1
56877|NA|0|2|2
56877|NA|0|3|3
56877|NA|0|4|4
56877|NA|0|5|5
56877|NA|0|6|6
56877|NA|0|7|7
56877|NA|0|8|8
56877|NA|0|9|9
56877|NA|0|10|10
56877|NA|0|11|11
56877|NA|0|12|12
56877|NA|0|13|13
56877|NA|0|14|14
56877|NA|0|15|15
56877|NA|0|A-12|16
56877|NA|0|A-13|17
56877|NA|0|A-14|18
56877|NA|0|A-15|19
56904|NA|0|1|1
56904|NA|0|2|2
56904|NA|0|3|3
56904|NA|0|4|4
56904|NA|0|5|5
56904|NA|0|6|6
56904|NA|0|7|7
56904|NA|0|8|8
56904|NA|0|9|9
56904|NA|0|10|10
56904|NA|0|11|11
56904|NA|0|12|12
56904|NA|0|13|13
56904|NA|0|14|14
56904|NA|0|15|15
56904|NA|0|A-12|16
56904|NA|0|A-13|17
56904|NA|0|A-14|18
56904|NA|0|A-15|19
56905|NA|0|1|1
56905|NA|0|2|2
56905|NA|0|3|3
56905|NA|0|4|4
56905|NA|0|5|5
56905|NA|0|6|6
56905|NA|0|7|7
56905|NA|0|8|8
56905|NA|0|9|9
56905|NA|0|10|10
56905|NA|0|11|11
56905|NA|0|12|12
56905|NA|0|13|13
56905|NA|0|14|14
56905|NA|0|15|15
56905|NA|0|A-12|16
56905|NA|0|A-13|17
56905|NA|0|A-14|18
56905|NA|0|A-15|19
56943|NA|0|1|1
56943|NA|0|2|2
56943|NA|0|3|3
56943|NA|0|4|4
56943|NA|0|5|5
56943|NA|0|6|6
56943|NA|0|7|7
56943|NA|0|8|8
56943|NA|0|9|9
56943|NA|0|10|10
56943|NA|0|11|11
56943|NA|0|12|12
56943|NA|0|13|13
56943|NA|0|14|14
56943|NA|0|15|15
56943|NA|0|A-12|16
56943|NA|0|A-13|17
56943|NA|0|A-14|18
56943|NA|0|A-15|19
56945|NA|0|1|1
56945|NA|0|2|2
56945|NA|0|3|3
56945|NA|0|4|4
56945|NA|0|5|5
56945|NA|0|6|6
56945|NA|0|7|7
56945|NA|0|8|8
56945|NA|0|9|9
56945|NA|0|10|10
56945|NA|0|11|11
56945|NA|0|12|12
56945|NA|0|13|13
56945|NA|0|14|14
56945|NA|0|15|15
56945|NA|0|A-12|16
56945|NA|0|A-13|17
56945|NA|0|A-14|18
56945|NA|0|A-15|19
56947|NA|0|1|1
56947|NA|0|2|2
56947|NA|0|3|3
56947|NA|0|4|4
56947|NA|0|5|5
56947|NA|0|6|6
56947|NA|0|7|7
56947|NA|0|8|8
56947|NA|0|9|9
56947|NA|0|10|10
56947|NA|0|11|11
56947|NA|0|12|12
56947|NA|0|13|13
56947|NA|0|14|14
56947|NA|0|15|15
56947|NA|0|A-12|16
56947|NA|0|A-13|17
56947|NA|0|A-14|18
56947|NA|0|A-15|19
56950|NA|0|1|1
56950|NA|0|2|2
56950|NA|0|3|3
56950|NA|0|4|4
56950|NA|0|5|5
56950|NA|0|6|6
56950|NA|0|7|7
56950|NA|0|8|8
56950|NA|0|9|9
56950|NA|0|10|10
56950|NA|0|11|11
56950|NA|0|12|12
56950|NA|0|13|13
56950|NA|0|14|14
56950|NA|0|15|15
56950|NA|0|A-12|16
56950|NA|0|A-13|17
56950|NA|0|A-14|18
56950|NA|0|A-15|19
56954|NA|0|1|1
56954|NA|0|2|2
56954|NA|0|3|3
56954|NA|0|4|4
56954|NA|0|5|5
56954|NA|0|6|6
56954|NA|0|7|7
56954|NA|0|8|8
56954|NA|0|9|9
56954|NA|0|10|10
56954|NA|0|11|11
56954|NA|0|12|12
56954|NA|0|13|13
56954|NA|0|14|14
56954|NA|0|15|15
56954|NA|0|A-12|16
56954|NA|0|A-13|17
56954|NA|0|A-14|18
56954|NA|0|A-15|19
56955|NA|0|1|1
56955|NA|0|2|2
56955|NA|0|3|3
56955|NA|0|4|4
56955|NA|0|5|5
56955|NA|0|6|6
56955|NA|0|7|7
56955|NA|0|8|8
56955|NA|0|9|9
56955|NA|0|10|10
56955|NA|0|11|11
56955|NA|0|12|12
56955|NA|0|13|13
56955|NA|0|14|14
56955|NA|0|15|15
56955|NA|0|A-12|16
56955|NA|0|A-13|17
56955|NA|0|A-14|18
56955|NA|0|A-15|19
56974|NA|0|1|1
56974|NA|0|2|2
56974|NA|0|3|3
56974|NA|0|4|4
56974|NA|0|5|5
56974|NA|0|6|6
56974|NA|0|7|7
56974|NA|0|8|8
56974|NA|0|9|9
56974|NA|0|10|10
56974|NA|0|11|11
56974|NA|0|12|12
56974|NA|0|13|13
56974|NA|0|14|14
56974|NA|0|15|15
56974|NA|0|A-12|16
56974|NA|0|A-13|17
56974|NA|0|A-14|18
56974|NA|0|A-15|19
56975|NA|0|1|1
56975|NA|0|2|2
56975|NA|0|3|3
56975|NA|0|4|4
56975|NA|0|5|5
56975|NA|0|6|6
56975|NA|0|7|7
56975|NA|0|8|8
56975|NA|0|9|9
56975|NA|0|10|10
56975|NA|0|11|11
56975|NA|0|12|12
56975|NA|0|13|13
56975|NA|0|14|14
56975|NA|0|15|15
56975|NA|0|A-12|16
56975|NA|0|A-13|17
56975|NA|0|A-14|18
56975|NA|0|A-15|19
57017|NA|0|1|1
57017|NA|0|2|2
57017|NA|0|3|3
57017|NA|0|4|4
57017|NA|0|5|5
57017|NA|0|6|6
57017|NA|0|7|7
57017|NA|0|8|8
57017|NA|0|9|9
57017|NA|0|10|10
57017|NA|0|11|11
57017|NA|0|12|12
57017|NA|0|13|13
57017|NA|0|14|14
57017|NA|0|15|15
57017|NA|0|A-12|16
57017|NA|0|A-13|17
57017|NA|0|A-14|18
57017|NA|0|A-15|19
57046|NA|0|1|1
57046|NA|0|2|2
57046|NA|0|3|3
57046|NA|0|4|4
57046|NA|0|5|5
57046|NA|0|6|6
57046|NA|0|7|7
57046|NA|0|8|8
57046|NA|0|9|9
57046|NA|0|10|10
57046|NA|0|11|11
57046|NA|0|12|12
57046|NA|0|13|13
57046|NA|0|14|14
57046|NA|0|15|15
57046|NA|0|A-12|16
57046|NA|0|A-13|17
57046|NA|0|A-14|18
57046|NA|0|A-15|19
57051|NA|0|1|1
57051|NA|0|2|2
57051|NA|0|3|3
57051|NA|0|4|4
57051|NA|0|5|5
57051|NA|0|6|6
57051|NA|0|7|7
57051|NA|0|8|8
57051|NA|0|9|9
57051|NA|0|10|10
57051|NA|0|11|11
57051|NA|0|12|12
57051|NA|0|13|13
57051|NA|0|14|14
57051|NA|0|15|15
57051|NA|0|A-12|16
57051|NA|0|A-13|17
57051|NA|0|A-14|18
57051|NA|0|A-15|19
57055|NA|0|1|1
57055|NA|0|2|2
57055|NA|0|3|3
57055|NA|0|4|4
57055|NA|0|5|5
57055|NA|0|6|6
57055|NA|0|7|7
57055|NA|0|8|8
57055|NA|0|9|9
57055|NA|0|10|10
57055|NA|0|11|11
57055|NA|0|12|12
57055|NA|0|13|13
57055|NA|0|14|14
57055|NA|0|15|15
57055|NA|0|A-12|16
57055|NA|0|A-13|17
57055|NA|0|A-14|18
57055|NA|0|A-15|19
57067|NA|0|1|1
57067|NA|0|2|2
57067|NA|0|3|3
57067|NA|0|4|4
57067|NA|0|5|5
57067|NA|0|6|6
57067|NA|0|7|7
57067|NA|0|8|8
57067|NA|0|9|9
57067|NA|0|10|10
57067|NA|0|11|11
57067|NA|0|12|12
57067|NA|0|13|13
57067|NA|0|14|14
57067|NA|0|15|15
57067|NA|0|A-12|16
57067|NA|0|A-13|17
57067|NA|0|A-14|18
57067|NA|0|A-15|19
57070|NA|0|1|1
57070|NA|0|2|2
57070|NA|0|3|3
57070|NA|0|4|4
57070|NA|0|5|5
57070|NA|0|6|6
57070|NA|0|7|7
57070|NA|0|8|8
57070|NA|0|9|9
57070|NA|0|10|10
57070|NA|0|11|11
57070|NA|0|12|12
57070|NA|0|13|13
57070|NA|0|14|14
57070|NA|0|15|15
57070|NA|0|A-12|16
57070|NA|0|A-13|17
57070|NA|0|A-14|18
57070|NA|0|A-15|19
57074|NA|0|1|1
57074|NA|0|2|2
57074|NA|0|3|3
57074|NA|0|4|4
57074|NA|0|5|5
57074|NA|0|6|6
57074|NA|0|7|7
57074|NA|0|8|8
57074|NA|0|9|9
57074|NA|0|10|10
57074|NA|0|11|11
57074|NA|0|12|12
57074|NA|0|13|13
57074|NA|0|14|14
57074|NA|0|15|15
57074|NA|0|A-12|16
57074|NA|0|A-13|17
57074|NA|0|A-14|18
57074|NA|0|A-15|19
57117|NA|0|1|1
57117|NA|0|2|2
57117|NA|0|3|3
57117|NA|0|4|4
57117|NA|0|5|5
57117|NA|0|6|6
57117|NA|0|7|7
57117|NA|0|8|8
57117|NA|0|9|9
57117|NA|0|10|10
57117|NA|0|11|11
57117|NA|0|12|12
57117|NA|0|13|13
57117|NA|0|14|14
57117|NA|0|15|15
57117|NA|0|A-12|16
57117|NA|0|A-13|17
57117|NA|0|A-14|18
57117|NA|0|A-15|19
57133|NA|0|1|1
57133|NA|0|2|2
57133|NA|0|3|3
57133|NA|0|4|4
57133|NA|0|5|5
57133|NA|0|6|6
57133|NA|0|7|7
57133|NA|0|8|8
57133|NA|0|9|9
57133|NA|0|10|10
57133|NA|0|11|11
57133|NA|0|12|12
57133|NA|0|13|13
57133|NA|0|14|14
57133|NA|0|15|15
57133|NA|0|A-12|16
57133|NA|0|A-13|17
57133|NA|0|A-14|18
57133|NA|0|A-15|19
57134|NA|0|1|1
57134|NA|0|2|2
57134|NA|0|3|3
57134|NA|0|4|4
57134|NA|0|5|5
57134|NA|0|6|6
57134|NA|0|7|7
57134|NA|0|8|8
57134|NA|0|9|9
57134|NA|0|10|10
57134|NA|0|11|11
57134|NA|0|12|12
57134|NA|0|13|13
57134|NA|0|14|14
57134|NA|0|15|15
57134|NA|0|A-12|16
57134|NA|0|A-13|17
57134|NA|0|A-14|18
57134|NA|0|A-15|19
57135|NA|0|1|1
57135|NA|0|2|2
57135|NA|0|3|3
57135|NA|0|4|4
57135|NA|0|5|5
57135|NA|0|6|6
57135|NA|0|7|7
57135|NA|0|8|8
57135|NA|0|9|9
57135|NA|0|10|10
57135|NA|0|11|11
57135|NA|0|12|12
57135|NA|0|13|13
57135|NA|0|14|14
57135|NA|0|15|15
57135|NA|0|A-12|16
57135|NA|0|A-13|17
57135|NA|0|A-14|18
57135|NA|0|A-15|19
57136|NA|0|1|1
57136|NA|0|2|2
57136|NA|0|3|3
57136|NA|0|4|4
57136|NA|0|5|5
57136|NA|0|6|6
57136|NA|0|7|7
57136|NA|0|8|8
57136|NA|0|9|9
57136|NA|0|10|10
57136|NA|0|11|11
57136|NA|0|12|12
57136|NA|0|13|13
57136|NA|0|14|14
57136|NA|0|15|15
57136|NA|0|A-12|16
57136|NA|0|A-13|17
57136|NA|0|A-14|18
57136|NA|0|A-15|19
57137|NA|0|1|1
57137|NA|0|2|2
57137|NA|0|3|3
57137|NA|0|4|4
57137|NA|0|5|5
57137|NA|0|6|6
57137|NA|0|7|7
57137|NA|0|8|8
57137|NA|0|9|9
57137|NA|0|10|10
57137|NA|0|11|11
57137|NA|0|12|12
57137|NA|0|13|13
57137|NA|0|14|14
57137|NA|0|15|15
57137|NA|0|A-12|16
57137|NA|0|A-13|17
57137|NA|0|A-14|18
57137|NA|0|A-15|19
57150|NA|0|1|1
57150|NA|0|2|2
57150|NA|0|3|3
57150|NA|0|4|4
57150|NA|0|5|5
57150|NA|0|6|6
57150|NA|0|7|7
57150|NA|0|8|8
57150|NA|0|9|9
57150|NA|0|10|10
57150|NA|0|11|11
57150|NA|0|12|12
57150|NA|0|13|13
57150|NA|0|14|14
57150|NA|0|15|15
57150|NA|0|A-12|16
57150|NA|0|A-13|17
57150|NA|0|A-14|18
57150|NA|0|A-15|19
57156|NA|0|1|1
57156|NA|0|2|2
57156|NA|0|3|3
57156|NA|0|4|4
57156|NA|0|5|5
57156|NA|0|6|6
57156|NA|0|7|7
57156|NA|0|8|8
57156|NA|0|9|9
57156|NA|0|10|10
57156|NA|0|11|11
57156|NA|0|12|12
57156|NA|0|13|13
57156|NA|0|14|14
57156|NA|0|15|15
57156|NA|0|A-12|16
57156|NA|0|A-13|17
57156|NA|0|A-14|18
57156|NA|0|A-15|19
57177|NA|0|1|1
57177|NA|0|2|2
57177|NA|0|3|3
57177|NA|0|4|4
57177|NA|0|5|5
57177|NA|0|6|6
57177|NA|0|7|7
57177|NA|0|8|8
57177|NA|0|9|9
57177|NA|0|10|10
57177|NA|0|11|11
57177|NA|0|12|12
57177|NA|0|13|13
57177|NA|0|14|14
57177|NA|0|15|15
57177|NA|0|A-12|16
57177|NA|0|A-13|17
57177|NA|0|A-14|18
57177|NA|0|A-15|19
57178|NA|0|1|1
57178|NA|0|2|2
57178|NA|0|3|3
57178|NA|0|4|4
57178|NA|0|5|5
57178|NA|0|6|6
57178|NA|0|7|7
57178|NA|0|8|8
57178|NA|0|9|9
57178|NA|0|10|10
57178|NA|0|11|11
57178|NA|0|12|12
57178|NA|0|13|13
57178|NA|0|14|14
57178|NA|0|15|15
57178|NA|0|A-12|16
57178|NA|0|A-13|17
57178|NA|0|A-14|18
57178|NA|0|A-15|19
57180|NA|0|1|1
57180|NA|0|2|2
57180|NA|0|3|3
57180|NA|0|4|4
57180|NA|0|5|5
57180|NA|0|6|6
57180|NA|0|7|7
57180|NA|0|8|8
57180|NA|0|9|9
57180|NA|0|10|10
57180|NA|0|11|11
57180|NA|0|12|12
57180|NA|0|13|13
57180|NA|0|14|14
57180|NA|0|15|15
57180|NA|0|A-12|16
57180|NA|0|A-13|17
57180|NA|0|A-14|18
57180|NA|0|A-15|19
57307|NA|0|1|1
57307|NA|0|2|2
57307|NA|0|3|3
57307|NA|0|4|4
57307|NA|0|5|5
57307|NA|0|6|6
57307|NA|0|7|7
57307|NA|0|8|8
57307|NA|0|9|9
57307|NA|0|10|10
57307|NA|0|11|11
57307|NA|0|12|12
57307|NA|0|13|13
57307|NA|0|14|14
57307|NA|0|15|15
57307|NA|0|A-12|16
57307|NA|0|A-13|17
57307|NA|0|A-14|18
57307|NA|0|A-15|19
57360|NA|0|1|1
57360|NA|0|2|2
57360|NA|0|3|3
57360|NA|0|4|4
57360|NA|0|5|5
57360|NA|0|6|6
57360|NA|0|7|7
57360|NA|0|8|8
57360|NA|0|9|9
57360|NA|0|10|10
57360|NA|0|11|11
57360|NA|0|12|12
57360|NA|0|13|13
57360|NA|0|14|14
57360|NA|0|15|15
57360|NA|0|A-12|16
57360|NA|0|A-13|17
57360|NA|0|A-14|18
57360|NA|0|A-15|19
57361|NA|0|1|1
57361|NA|0|2|2
57361|NA|0|3|3
57361|NA|0|4|4
57361|NA|0|5|5
57361|NA|0|6|6
57361|NA|0|7|7
57361|NA|0|8|8
57361|NA|0|9|9
57361|NA|0|10|10
57361|NA|0|11|11
57361|NA|0|12|12
57361|NA|0|13|13
57361|NA|0|14|14
57361|NA|0|15|15
57361|NA|0|A-12|16
57361|NA|0|A-13|17
57361|NA|0|A-14|18
57361|NA|0|A-15|19
57362|NA|0|1|1
57362|NA|0|2|2
57362|NA|0|3|3
57362|NA|0|4|4
57362|NA|0|5|5
57362|NA|0|6|6
57362|NA|0|7|7
57362|NA|0|8|8
57362|NA|0|9|9
57362|NA|0|10|10
57362|NA|0|11|11
57362|NA|0|12|12
57362|NA|0|13|13
57362|NA|0|14|14
57362|NA|0|15|15
57362|NA|0|A-12|16
57362|NA|0|A-13|17
57362|NA|0|A-14|18
57362|NA|0|A-15|19
57363|NA|0|1|1
57363|NA|0|2|2
57363|NA|0|3|3
57363|NA|0|4|4
57363|NA|0|5|5
57363|NA|0|6|6
57363|NA|0|7|7
57363|NA|0|8|8
57363|NA|0|9|9
57363|NA|0|10|10
57363|NA|0|11|11
57363|NA|0|12|12
57363|NA|0|13|13
57363|NA|0|14|14
57363|NA|0|15|15
57363|NA|0|A-12|16
57363|NA|0|A-13|17
57363|NA|0|A-14|18
57363|NA|0|A-15|19
