ID|CONTENIDO|SECUENCIA|TIPO|F2
52013|NA|0|1|1
52013|NA|0|2|2
52013|NA|0|3|3
52013|NA|0|4|4
52013|NA|0|5|5
52013|NA|0|6|6
52013|NA|0|7|7
52013|NA|0|8|8
52013|NA|0|9|9
52013|NA|0|10|10
52013|NA|0|11|11
52013|NA|0|12|12
52013|NA|0|13|13
52013|NA|0|14|14
52013|NA|0|15|15
52013|NA|0|A-12|16
52013|NA|0|A-13|17
52013|NA|0|A-14|18
52013|NA|0|A-15|19
52083|NA|0|1|1
52083|NA|0|2|2
52083|NA|0|3|3
52083|NA|0|4|4
52083|NA|0|5|5
52083|NA|0|6|6
52083|NA|0|7|7
52083|NA|0|8|8
52083|NA|0|9|9
52083|NA|0|10|10
52083|NA|0|11|11
52083|NA|0|12|12
52083|NA|0|13|13
52083|NA|0|14|14
52083|NA|0|15|15
52083|NA|0|A-12|16
52083|NA|0|A-13|17
52083|NA|0|A-14|18
52083|NA|0|A-15|19
52127|NA|0|1|1
52127|NA|0|2|2
52127|NA|0|3|3
52127|NA|0|4|4
52127|NA|0|5|5
52127|NA|0|6|6
52127|NA|0|7|7
52127|NA|0|8|8
52127|NA|0|9|9
52127|NA|0|10|10
52127|NA|0|11|11
52127|NA|0|12|12
52127|NA|0|13|13
52127|NA|0|14|14
52127|NA|0|15|15
52127|NA|0|A-12|16
52127|NA|0|A-13|17
52127|NA|0|A-14|18
52127|NA|0|A-15|19
52173|NA|0|1|1
52173|NA|0|2|2
52173|NA|0|3|3
52173|NA|0|4|4
52173|NA|0|5|5
52173|NA|0|6|6
52173|NA|0|7|7
52173|NA|0|8|8
52173|NA|0|9|9
52173|NA|0|10|10
52173|NA|0|11|11
52173|NA|0|12|12
52173|NA|0|13|13
52173|NA|0|14|14
52173|NA|0|15|15
52173|NA|0|A-12|16
52173|NA|0|A-13|17
52173|NA|0|A-14|18
52173|NA|0|A-15|19
52184|NA|0|1|1
52184|NA|0|2|2
52184|NA|0|3|3
52184|NA|0|4|4
52184|NA|0|5|5
52184|NA|0|6|6
52184|NA|0|7|7
52184|NA|0|8|8
52184|NA|0|9|9
52184|NA|0|10|10
52184|NA|0|11|11
52184|NA|0|12|12
52184|NA|0|13|13
52184|NA|0|14|14
52184|NA|0|15|15
52184|NA|0|A-12|16
52184|NA|0|A-13|17
52184|NA|0|A-14|18
52184|NA|0|A-15|19
52202|NA|0|1|1
52202|NA|0|2|2
52202|NA|0|3|3
52202|NA|0|4|4
52202|NA|0|5|5
52202|NA|0|6|6
52202|NA|0|7|7
52202|NA|0|8|8
52202|NA|0|9|9
52202|NA|0|10|10
52202|NA|0|11|11
52202|NA|0|12|12
52202|NA|0|13|13
52202|NA|0|14|14
52202|NA|0|15|15
52202|NA|0|A-12|16
52202|NA|0|A-13|17
52202|NA|0|A-14|18
52202|NA|0|A-15|19
52252|NA|0|1|1
52252|NA|0|2|2
52252|NA|0|3|3
52252|NA|0|4|4
52252|NA|0|5|5
52252|NA|0|6|6
52252|NA|0|7|7
52252|NA|0|8|8
52252|NA|0|9|9
52252|NA|0|10|10
52252|NA|0|11|11
52252|NA|0|12|12
52252|NA|0|13|13
52252|NA|0|14|14
52252|NA|0|15|15
52252|NA|0|A-12|16
52252|NA|0|A-13|17
52252|NA|0|A-14|18
52252|NA|0|A-15|19
52313|NA|0|1|1
52313|NA|0|2|2
52313|NA|0|3|3
52313|NA|0|4|4
52313|NA|0|5|5
52313|NA|0|6|6
52313|NA|0|7|7
52313|NA|0|8|8
52313|NA|0|9|9
52313|NA|0|10|10
52313|NA|0|11|11
52313|NA|0|12|12
52313|NA|0|13|13
52313|NA|0|14|14
52313|NA|0|15|15
52313|NA|0|A-12|16
52313|NA|0|A-13|17
52313|NA|0|A-14|18
52313|NA|0|A-15|19
52314|NA|0|1|1
52314|NA|0|2|2
52314|NA|0|3|3
52314|NA|0|4|4
52314|NA|0|5|5
52314|NA|0|6|6
52314|NA|0|7|7
52314|NA|0|8|8
52314|NA|0|9|9
52314|NA|0|10|10
52314|NA|0|11|11
52314|NA|0|12|12
52314|NA|0|13|13
52314|NA|0|14|14
52314|NA|0|15|15
52314|NA|0|A-12|16
52314|NA|0|A-13|17
52314|NA|0|A-14|18
52314|NA|0|A-15|19
