ID|CONTENIDO|SECUENCIA|TIPO|F2
57956|NA|0|1|1
57956|NA|0|2|2
57956|NA|0|3|3
57956|NA|0|4|4
57956|NA|0|5|5
57956|NA|0|6|6
57956|NA|0|7|7
57956|NA|0|8|8
57956|NA|0|9|9
57956|NA|0|10|10
57956|NA|0|11|11
57956|NA|0|12|12
57956|NA|0|13|13
57956|NA|0|14|14
57956|NA|0|15|15
57956|NA|0|A-12|16
57956|NA|0|A-13|17
57956|NA|0|A-14|18
57956|NA|0|A-15|19
57959|NA|0|1|1
57959|NA|0|2|2
57959|NA|0|3|3
57959|NA|0|4|4
57959|NA|0|5|5
57959|NA|0|6|6
57959|NA|0|7|7
57959|NA|0|8|8
57959|NA|0|9|9
57959|NA|0|10|10
57959|NA|0|11|11
57959|NA|0|12|12
57959|NA|0|13|13
57959|NA|0|14|14
57959|NA|0|15|15
57959|NA|0|A-12|16
57959|NA|0|A-13|17
57959|NA|0|A-14|18
57959|NA|0|A-15|19
57993|NA|0|1|1
57993|NA|0|2|2
57993|NA|0|3|3
57993|NA|0|4|4
57993|NA|0|5|5
57993|NA|0|6|6
57993|NA|0|7|7
57993|NA|0|8|8
57993|NA|0|9|9
57993|NA|0|10|10
57993|NA|0|11|11
57993|NA|0|12|12
57993|NA|0|13|13
57993|NA|0|14|14
57993|NA|0|15|15
57993|NA|0|A-12|16
57993|NA|0|A-13|17
57993|NA|0|A-14|18
57993|NA|0|A-15|19
58003|NA|0|1|1
58003|NA|0|2|2
58003|NA|0|3|3
58003|NA|0|4|4
58003|NA|0|5|5
58003|NA|0|6|6
58003|NA|0|7|7
58003|NA|0|8|8
58003|NA|0|9|9
58003|NA|0|10|10
58003|NA|0|11|11
58003|NA|0|12|12
58003|NA|0|13|13
58003|NA|0|14|14
58003|NA|0|15|15
58003|NA|0|A-12|16
58003|NA|0|A-13|17
58003|NA|0|A-14|18
58003|NA|0|A-15|19
58033|NA|0|1|1
58033|NA|0|2|2
58033|NA|0|3|3
58033|NA|0|4|4
58033|NA|0|5|5
58033|NA|0|6|6
58033|NA|0|7|7
58033|NA|0|8|8
58033|NA|0|9|9
58033|NA|0|10|10
58033|NA|0|11|11
58033|NA|0|12|12
58033|NA|0|13|13
58033|NA|0|14|14
58033|NA|0|15|15
58033|NA|0|A-12|16
58033|NA|0|A-13|17
58033|NA|0|A-14|18
58033|NA|0|A-15|19
58035|NA|0|1|1
58035|NA|0|2|2
58035|NA|0|3|3
58035|NA|0|4|4
58035|NA|0|5|5
58035|NA|0|6|6
58035|NA|0|7|7
58035|NA|0|8|8
58035|NA|0|9|9
58035|NA|0|10|10
58035|NA|0|11|11
58035|NA|0|12|12
58035|NA|0|13|13
58035|NA|0|14|14
58035|NA|0|15|15
58035|NA|0|A-12|16
58035|NA|0|A-13|17
58035|NA|0|A-14|18
58035|NA|0|A-15|19
58074|NA|0|1|1
58074|NA|0|2|2
58074|NA|0|3|3
58074|NA|0|4|4
58074|NA|0|5|5
58074|NA|0|6|6
58074|NA|0|7|7
58074|NA|0|8|8
58074|NA|0|9|9
58074|NA|0|10|10
58074|NA|0|11|11
58074|NA|0|12|12
58074|NA|0|13|13
58074|NA|0|14|14
58074|NA|0|15|15
58074|NA|0|A-12|16
58074|NA|0|A-13|17
58074|NA|0|A-14|18
58074|NA|0|A-15|19
58075|NA|0|1|1
58075|NA|0|2|2
58075|NA|0|3|3
58075|NA|0|4|4
58075|NA|0|5|5
58075|NA|0|6|6
58075|NA|0|7|7
58075|NA|0|8|8
58075|NA|0|9|9
58075|NA|0|10|10
58075|NA|0|11|11
58075|NA|0|12|12
58075|NA|0|13|13
58075|NA|0|14|14
58075|NA|0|15|15
58075|NA|0|A-12|16
58075|NA|0|A-13|17
58075|NA|0|A-14|18
58075|NA|0|A-15|19
58076|NA|0|1|1
58076|NA|0|2|2
58076|NA|0|3|3
58076|NA|0|4|4
58076|NA|0|5|5
58076|NA|0|6|6
58076|NA|0|7|7
58076|NA|0|8|8
58076|NA|0|9|9
58076|NA|0|10|10
58076|NA|0|11|11
58076|NA|0|12|12
58076|NA|0|13|13
58076|NA|0|14|14
58076|NA|0|15|15
58076|NA|0|A-12|16
58076|NA|0|A-13|17
58076|NA|0|A-14|18
58076|NA|0|A-15|19
58077|NA|0|1|1
58077|NA|0|2|2
58077|NA|0|3|3
58077|NA|0|4|4
58077|NA|0|5|5
58077|NA|0|6|6
58077|NA|0|7|7
58077|NA|0|8|8
58077|NA|0|9|9
58077|NA|0|10|10
58077|NA|0|11|11
58077|NA|0|12|12
58077|NA|0|13|13
58077|NA|0|14|14
58077|NA|0|15|15
58077|NA|0|A-12|16
58077|NA|0|A-13|17
58077|NA|0|A-14|18
58077|NA|0|A-15|19
58078|NA|0|1|1
58078|NA|0|2|2
58078|NA|0|3|3
58078|NA|0|4|4
58078|NA|0|5|5
58078|NA|0|6|6
58078|NA|0|7|7
58078|NA|0|8|8
58078|NA|0|9|9
58078|NA|0|10|10
58078|NA|0|11|11
58078|NA|0|12|12
58078|NA|0|13|13
58078|NA|0|14|14
58078|NA|0|15|15
58078|NA|0|A-12|16
58078|NA|0|A-13|17
58078|NA|0|A-14|18
58078|NA|0|A-15|19
58079|NA|0|1|1
58079|NA|0|2|2
58079|NA|0|3|3
58079|NA|0|4|4
58079|NA|0|5|5
58079|NA|0|6|6
58079|NA|0|7|7
58079|NA|0|8|8
58079|NA|0|9|9
58079|NA|0|10|10
58079|NA|0|11|11
58079|NA|0|12|12
58079|NA|0|13|13
58079|NA|0|14|14
58079|NA|0|15|15
58079|NA|0|A-12|16
58079|NA|0|A-13|17
58079|NA|0|A-14|18
58079|NA|0|A-15|19
58080|NA|0|1|1
58080|NA|0|2|2
58080|NA|0|3|3
58080|NA|0|4|4
58080|NA|0|5|5
58080|NA|0|6|6
58080|NA|0|7|7
58080|NA|0|8|8
58080|NA|0|9|9
58080|NA|0|10|10
58080|NA|0|11|11
58080|NA|0|12|12
58080|NA|0|13|13
58080|NA|0|14|14
58080|NA|0|15|15
58080|NA|0|A-12|16
58080|NA|0|A-13|17
58080|NA|0|A-14|18
58080|NA|0|A-15|19
58081|NA|0|1|1
58081|NA|0|2|2
58081|NA|0|3|3
58081|NA|0|4|4
58081|NA|0|5|5
58081|NA|0|6|6
58081|NA|0|7|7
58081|NA|0|8|8
58081|NA|0|9|9
58081|NA|0|10|10
58081|NA|0|11|11
58081|NA|0|12|12
58081|NA|0|13|13
58081|NA|0|14|14
58081|NA|0|15|15
58081|NA|0|A-12|16
58081|NA|0|A-13|17
58081|NA|0|A-14|18
58081|NA|0|A-15|19
58082|NA|0|1|1
58082|NA|0|2|2
58082|NA|0|3|3
58082|NA|0|4|4
58082|NA|0|5|5
58082|NA|0|6|6
58082|NA|0|7|7
58082|NA|0|8|8
58082|NA|0|9|9
58082|NA|0|10|10
58082|NA|0|11|11
58082|NA|0|12|12
58082|NA|0|13|13
58082|NA|0|14|14
58082|NA|0|15|15
58082|NA|0|A-12|16
58082|NA|0|A-13|17
58082|NA|0|A-14|18
58082|NA|0|A-15|19
58085|NA|0|1|1
58085|NA|0|2|2
58085|NA|0|3|3
58085|NA|0|4|4
58085|NA|0|5|5
58085|NA|0|6|6
58085|NA|0|7|7
58085|NA|0|8|8
58085|NA|0|9|9
58085|NA|0|10|10
58085|NA|0|11|11
58085|NA|0|12|12
58085|NA|0|13|13
58085|NA|0|14|14
58085|NA|0|15|15
58085|NA|0|A-12|16
58085|NA|0|A-13|17
58085|NA|0|A-14|18
58085|NA|0|A-15|19
58095|NA|0|1|1
58095|NA|0|2|2
58095|NA|0|3|3
58095|NA|0|4|4
58095|NA|0|5|5
58095|NA|0|6|6
58095|NA|0|7|7
58095|NA|0|8|8
58095|NA|0|9|9
58095|NA|0|10|10
58095|NA|0|11|11
58095|NA|0|12|12
58095|NA|0|13|13
58095|NA|0|14|14
58095|NA|0|15|15
58095|NA|0|A-12|16
58095|NA|0|A-13|17
58095|NA|0|A-14|18
58095|NA|0|A-15|19
58098|NA|0|1|1
58098|NA|0|2|2
58098|NA|0|3|3
58098|NA|0|4|4
58098|NA|0|5|5
58098|NA|0|6|6
58098|NA|0|7|7
58098|NA|0|8|8
58098|NA|0|9|9
58098|NA|0|10|10
58098|NA|0|11|11
58098|NA|0|12|12
58098|NA|0|13|13
58098|NA|0|14|14
58098|NA|0|15|15
58098|NA|0|A-12|16
58098|NA|0|A-13|17
58098|NA|0|A-14|18
58098|NA|0|A-15|19
58100|NA|0|1|1
58100|NA|0|2|2
58100|NA|0|3|3
58100|NA|0|4|4
58100|NA|0|5|5
58100|NA|0|6|6
58100|NA|0|7|7
58100|NA|0|8|8
58100|NA|0|9|9
58100|NA|0|10|10
58100|NA|0|11|11
58100|NA|0|12|12
58100|NA|0|13|13
58100|NA|0|14|14
58100|NA|0|15|15
58100|NA|0|A-12|16
58100|NA|0|A-13|17
58100|NA|0|A-14|18
58100|NA|0|A-15|19
58112|NA|0|1|1
58112|NA|0|2|2
58112|NA|0|3|3
58112|NA|0|4|4
58112|NA|0|5|5
58112|NA|0|6|6
58112|NA|0|7|7
58112|NA|0|8|8
58112|NA|0|9|9
58112|NA|0|10|10
58112|NA|0|11|11
58112|NA|0|12|12
58112|NA|0|13|13
58112|NA|0|14|14
58112|NA|0|15|15
58112|NA|0|A-12|16
58112|NA|0|A-13|17
58112|NA|0|A-14|18
58112|NA|0|A-15|19
58114|NA|0|1|1
58114|NA|0|2|2
58114|NA|0|3|3
58114|NA|0|4|4
58114|NA|0|5|5
58114|NA|0|6|6
58114|NA|0|7|7
58114|NA|0|8|8
58114|NA|0|9|9
58114|NA|0|10|10
58114|NA|0|11|11
58114|NA|0|12|12
58114|NA|0|13|13
58114|NA|0|14|14
58114|NA|0|15|15
58114|NA|0|A-12|16
58114|NA|0|A-13|17
58114|NA|0|A-14|18
58114|NA|0|A-15|19
58129|NA|0|1|1
58129|NA|0|2|2
58129|NA|0|3|3
58129|NA|0|4|4
58129|NA|0|5|5
58129|NA|0|6|6
58129|NA|0|7|7
58129|NA|0|8|8
58129|NA|0|9|9
58129|NA|0|10|10
58129|NA|0|11|11
58129|NA|0|12|12
58129|NA|0|13|13
58129|NA|0|14|14
58129|NA|0|15|15
58129|NA|0|A-12|16
58129|NA|0|A-13|17
58129|NA|0|A-14|18
58129|NA|0|A-15|19
58140|NA|0|1|1
58140|NA|0|2|2
58140|NA|0|3|3
58140|NA|0|4|4
58140|NA|0|5|5
58140|NA|0|6|6
58140|NA|0|7|7
58140|NA|0|8|8
58140|NA|0|9|9
58140|NA|0|10|10
58140|NA|0|11|11
58140|NA|0|12|12
58140|NA|0|13|13
58140|NA|0|14|14
58140|NA|0|15|15
58140|NA|0|A-12|16
58140|NA|0|A-13|17
58140|NA|0|A-14|18
58140|NA|0|A-15|19
58148|NA|0|1|1
58148|NA|0|2|2
58148|NA|0|3|3
58148|NA|0|4|4
58148|NA|0|5|5
58148|NA|0|6|6
58148|NA|0|7|7
58148|NA|0|8|8
58148|NA|0|9|9
58148|NA|0|10|10
58148|NA|0|11|11
58148|NA|0|12|12
58148|NA|0|13|13
58148|NA|0|14|14
58148|NA|0|15|15
58148|NA|0|A-12|16
58148|NA|0|A-13|17
58148|NA|0|A-14|18
58148|NA|0|A-15|19
58149|NA|0|1|1
58149|NA|0|2|2
58149|NA|0|3|3
58149|NA|0|4|4
58149|NA|0|5|5
58149|NA|0|6|6
58149|NA|0|7|7
58149|NA|0|8|8
58149|NA|0|9|9
58149|NA|0|10|10
58149|NA|0|11|11
58149|NA|0|12|12
58149|NA|0|13|13
58149|NA|0|14|14
58149|NA|0|15|15
58149|NA|0|A-12|16
58149|NA|0|A-13|17
58149|NA|0|A-14|18
58149|NA|0|A-15|19
58150|NA|0|1|1
58150|NA|0|2|2
58150|NA|0|3|3
58150|NA|0|4|4
58150|NA|0|5|5
58150|NA|0|6|6
58150|NA|0|7|7
58150|NA|0|8|8
58150|NA|0|9|9
58150|NA|0|10|10
58150|NA|0|11|11
58150|NA|0|12|12
58150|NA|0|13|13
58150|NA|0|14|14
58150|NA|0|15|15
58150|NA|0|A-12|16
58150|NA|0|A-13|17
58150|NA|0|A-14|18
58150|NA|0|A-15|19
58178|NA|0|1|1
58178|NA|0|2|2
58178|NA|0|3|3
58178|NA|0|4|4
58178|NA|0|5|5
58178|NA|0|6|6
58178|NA|0|7|7
58178|NA|0|8|8
58178|NA|0|9|9
58178|NA|0|10|10
58178|NA|0|11|11
58178|NA|0|12|12
58178|NA|0|13|13
58178|NA|0|14|14
58178|NA|0|15|15
58178|NA|0|A-12|16
58178|NA|0|A-13|17
58178|NA|0|A-14|18
58178|NA|0|A-15|19
58183|NA|0|1|1
58183|NA|0|2|2
58183|NA|0|3|3
58183|NA|0|4|4
58183|NA|0|5|5
58183|NA|0|6|6
58183|NA|0|7|7
58183|NA|0|8|8
58183|NA|0|9|9
58183|NA|0|10|10
58183|NA|0|11|11
58183|NA|0|12|12
58183|NA|0|13|13
58183|NA|0|14|14
58183|NA|0|15|15
58183|NA|0|A-12|16
58183|NA|0|A-13|17
58183|NA|0|A-14|18
58183|NA|0|A-15|19
58184|NA|0|1|1
58184|NA|0|2|2
58184|NA|0|3|3
58184|NA|0|4|4
58184|NA|0|5|5
58184|NA|0|6|6
58184|NA|0|7|7
58184|NA|0|8|8
58184|NA|0|9|9
58184|NA|0|10|10
58184|NA|0|11|11
58184|NA|0|12|12
58184|NA|0|13|13
58184|NA|0|14|14
58184|NA|0|15|15
58184|NA|0|A-12|16
58184|NA|0|A-13|17
58184|NA|0|A-14|18
58184|NA|0|A-15|19
58186|NA|0|1|1
58186|NA|0|2|2
58186|NA|0|3|3
58186|NA|0|4|4
58186|NA|0|5|5
58186|NA|0|6|6
58186|NA|0|7|7
58186|NA|0|8|8
58186|NA|0|9|9
58186|NA|0|10|10
58186|NA|0|11|11
58186|NA|0|12|12
58186|NA|0|13|13
58186|NA|0|14|14
58186|NA|0|15|15
58186|NA|0|A-12|16
58186|NA|0|A-13|17
58186|NA|0|A-14|18
58186|NA|0|A-15|19
58187|NA|0|1|1
58187|NA|0|2|2
58187|NA|0|3|3
58187|NA|0|4|4
58187|NA|0|5|5
58187|NA|0|6|6
58187|NA|0|7|7
58187|NA|0|8|8
58187|NA|0|9|9
58187|NA|0|10|10
58187|NA|0|11|11
58187|NA|0|12|12
58187|NA|0|13|13
58187|NA|0|14|14
58187|NA|0|15|15
58187|NA|0|A-12|16
58187|NA|0|A-13|17
58187|NA|0|A-14|18
58187|NA|0|A-15|19
58188|NA|0|1|1
58188|NA|0|2|2
58188|NA|0|3|3
58188|NA|0|4|4
58188|NA|0|5|5
58188|NA|0|6|6
58188|NA|0|7|7
58188|NA|0|8|8
58188|NA|0|9|9
58188|NA|0|10|10
58188|NA|0|11|11
58188|NA|0|12|12
58188|NA|0|13|13
58188|NA|0|14|14
58188|NA|0|15|15
58188|NA|0|A-12|16
58188|NA|0|A-13|17
58188|NA|0|A-14|18
58188|NA|0|A-15|19
58189|NA|0|1|1
58189|NA|0|2|2
58189|NA|0|3|3
58189|NA|0|4|4
58189|NA|0|5|5
58189|NA|0|6|6
58189|NA|0|7|7
58189|NA|0|8|8
58189|NA|0|9|9
58189|NA|0|10|10
58189|NA|0|11|11
58189|NA|0|12|12
58189|NA|0|13|13
58189|NA|0|14|14
58189|NA|0|15|15
58189|NA|0|A-12|16
58189|NA|0|A-13|17
58189|NA|0|A-14|18
58189|NA|0|A-15|19
58579|NA|0|1|1
58579|NA|0|2|2
58579|NA|0|3|3
58579|NA|0|4|4
58579|NA|0|5|5
58579|NA|0|6|6
58579|NA|0|7|7
58579|NA|0|8|8
58579|NA|0|9|9
58579|NA|0|10|10
58579|NA|0|11|11
58579|NA|0|12|12
58579|NA|0|13|13
58579|NA|0|14|14
58579|NA|0|15|15
58579|NA|0|A-12|16
58579|NA|0|A-13|17
58579|NA|0|A-14|18
58579|NA|0|A-15|19
