ID|CONTENIDO|SECUENCIA|TIPO|F2
37105|NA|0|1|1
37105|NA|0|2|2
37105|NA|0|3|3
37105|NA|0|4|4
37105|NA|0|5|5
37105|NA|0|6|6
37105|NA|0|7|7
37105|NA|0|8|8
37105|NA|0|9|9
37105|NA|0|10|10
37105|NA|0|11|11
37105|NA|0|12|12
37105|NA|0|13|13
37105|NA|0|14|14
37105|NA|0|15|15
37105|NA|0|A-12|16
37105|NA|0|A-13|17
37105|NA|0|A-14|18
37105|NA|0|A-15|19
37111|NA|0|1|1
37111|NA|0|2|2
37111|NA|0|3|3
37111|NA|0|4|4
37111|NA|0|5|5
37111|NA|0|6|6
37111|NA|0|7|7
37111|NA|0|8|8
37111|NA|0|9|9
37111|NA|0|10|10
37111|NA|0|11|11
37111|NA|0|12|12
37111|NA|0|13|13
37111|NA|0|14|14
37111|NA|0|15|15
37111|NA|0|A-12|16
37111|NA|0|A-13|17
37111|NA|0|A-14|18
37111|NA|0|A-15|19
37160|NA|0|1|1
37160|NA|0|2|2
37160|NA|0|3|3
37160|NA|0|4|4
37160|NA|0|5|5
37160|NA|0|6|6
37160|NA|0|7|7
37160|NA|0|8|8
37160|NA|0|9|9
37160|NA|0|10|10
37160|NA|0|11|11
37160|NA|0|12|12
37160|NA|0|13|13
37160|NA|0|14|14
37160|NA|0|15|15
37160|NA|0|A-12|16
37160|NA|0|A-13|17
37160|NA|0|A-14|18
37160|NA|0|A-15|19
37210|NA|0|1|1
37210|NA|0|2|2
37210|NA|0|3|3
37210|NA|0|4|4
37210|NA|0|5|5
37210|NA|0|6|6
37210|NA|0|7|7
37210|NA|0|8|8
37210|NA|0|9|9
37210|NA|0|10|10
37210|NA|0|11|11
37210|NA|0|12|12
37210|NA|0|13|13
37210|NA|0|14|14
37210|NA|0|15|15
37210|NA|0|A-12|16
37210|NA|0|A-13|17
37210|NA|0|A-14|18
37210|NA|0|A-15|19
37211|NA|0|1|1
37211|NA|0|2|2
37211|NA|0|3|3
37211|NA|0|4|4
37211|NA|0|5|5
37211|NA|0|6|6
37211|NA|0|7|7
37211|NA|0|8|8
37211|NA|0|9|9
37211|NA|0|10|10
37211|NA|0|11|11
37211|NA|0|12|12
37211|NA|0|13|13
37211|NA|0|14|14
37211|NA|0|15|15
37211|NA|0|A-12|16
37211|NA|0|A-13|17
37211|NA|0|A-14|18
37211|NA|0|A-15|19
37212|NA|0|1|1
37212|NA|0|2|2
37212|NA|0|3|3
37212|NA|0|4|4
37212|NA|0|5|5
37212|NA|0|6|6
37212|NA|0|7|7
37212|NA|0|8|8
37212|NA|0|9|9
37212|NA|0|10|10
37212|NA|0|11|11
37212|NA|0|12|12
37212|NA|0|13|13
37212|NA|0|14|14
37212|NA|0|15|15
37212|NA|0|A-12|16
37212|NA|0|A-13|17
37212|NA|0|A-14|18
37212|NA|0|A-15|19
37213|NA|0|1|1
37213|NA|0|2|2
37213|NA|0|3|3
37213|NA|0|4|4
37213|NA|0|5|5
37213|NA|0|6|6
37213|NA|0|7|7
37213|NA|0|8|8
37213|NA|0|9|9
37213|NA|0|10|10
37213|NA|0|11|11
37213|NA|0|12|12
37213|NA|0|13|13
37213|NA|0|14|14
37213|NA|0|15|15
37213|NA|0|A-12|16
37213|NA|0|A-13|17
37213|NA|0|A-14|18
37213|NA|0|A-15|19
37225|NA|0|1|1
37225|NA|0|2|2
37225|NA|0|3|3
37225|NA|0|4|4
37225|NA|0|5|5
37225|NA|0|6|6
37225|NA|0|7|7
37225|NA|0|8|8
37225|NA|0|9|9
37225|NA|0|10|10
37225|NA|0|11|11
37225|NA|0|12|12
37225|NA|0|13|13
37225|NA|0|14|14
37225|NA|0|15|15
37225|NA|0|A-12|16
37225|NA|0|A-13|17
37225|NA|0|A-14|18
37225|NA|0|A-15|19
37238|NA|0|1|1
37238|NA|0|2|2
37238|NA|0|3|3
37238|NA|0|4|4
37238|NA|0|5|5
37238|NA|0|6|6
37238|NA|0|7|7
37238|NA|0|8|8
37238|NA|0|9|9
37238|NA|0|10|10
37238|NA|0|11|11
37238|NA|0|12|12
37238|NA|0|13|13
37238|NA|0|14|14
37238|NA|0|15|15
37238|NA|0|A-12|16
37238|NA|0|A-13|17
37238|NA|0|A-14|18
37238|NA|0|A-15|19
